\beamer@endinputifotherversion {3.10pt}
\select@language {polish}
\beamer@sectionintoc {1}{Cele pracy, mo\IeC {\.z}liwe zastosowania}{3}{0}{1}
\beamer@sectionintoc {2}{Przegl\IeC {\k a}d dotychczasowych rozwi\IeC {\k a}za\IeC {\'n}}{7}{0}{2}
\beamer@sectionintoc {3}{Om\IeC {\'o}wienie rozwi\IeC {\k a}zania}{10}{0}{3}
\beamer@sectionintoc {4}{Wnioski, mo\IeC {\.z}liwo\IeC {\'s}ci rozwoju}{17}{0}{4}
